<?xml version="1.0" standalone="yes"?>

<svg version="1.1" viewBox="0.0 0.0 458.00787401574803 389.0498687664042" fill="none" stroke="none" stroke-linecap="square" stroke-miterlimit="10" xmlns="http://www.w3.org/2000/svg" xmlns:xlink="http://www.w3.org/1999/xlink"><clipPath id="p.0"><path d="m0 0l458.00787 0l0 389.04987l-458.00787 0l0 -389.04987z" clip-rule="nonzero"></path></clipPath><g clip-path="url(#p.0)"><path fill="#000000" fill-opacity="0.0" d="m0 0l458.00787 0l0 389.04987l-458.00787 0z" fill-rule="nonzero"></path><path fill="#cfe2f3" d="m9.262467 22.802273l0 0c0 -7.4763784 6.0608025 -13.537181 13.537181 -13.537181l227.6343 0c3.5902863 0 7.0335236 1.4262342 9.57225 3.9649487c2.5386963 2.5387144 3.9649353 5.98195 3.9649353 9.572232l0 182.09099c0 7.4763794 -6.060791 13.537186 -13.537186 13.537186l-227.6343 0c-7.4763784 0 -13.537181 -6.0608063 -13.537181 -13.537186z" fill-rule="nonzero"></path><path stroke="#434343" stroke-width="8.0" stroke-linejoin="round" stroke-linecap="butt" d="m9.262467 22.802273l0 0c0 -7.4763784 6.0608025 -13.537181 13.537181 -13.537181l227.6343 0c3.5902863 0 7.0335236 1.4262342 9.57225 3.9649487c2.5386963 2.5387144 3.9649353 5.98195 3.9649353 9.572232l0 182.09099c0 7.4763794 -6.060791 13.537186 -13.537186 13.537186l-227.6343 0c-7.4763784 0 -13.537181 -6.0608063 -13.537181 -13.537186z" fill-rule="nonzero"></path><path fill="#073763" d="m127.3043 159.72777l0 -38.5625l-33.5625 -53.0625l21.6875 0l21.562508 36.25l21.125 -36.25l21.3125 0l-33.6875 53.1875l0 38.4375l-18.437508 0zm-2.125 -96.3125l-8.0 0q-0.0625 -1.4375 -0.0625 -2.25q0 -6.5625 3.1875 -10.09375q3.1875 -3.53125 8.187508 -3.53125q2.1875 0 4.0625 0.46875q1.875 0.46875 6.84375 2.6875q4.96875 2.21875 7.78125 2.21875q2.0 0 3.34375 -1.25q1.34375 -1.25 1.71875 -4.1875l8.125 0q-0.0625 8.4375 -3.15625 12.0625q-3.09375 3.625 -7.96875 3.625q-2.125 0 -4.1875 -0.4375q-1.4375 -0.375 -7.1875 -2.5625q-5.75 -2.1875 -8.375 -2.1875q-2.0000076 0 -3.1250076 1.21875q-1.125 1.21875 -1.1875 4.21875z" fill-rule="nonzero"></path><path fill="#b6d7a8" d="m194.59055 185.36133l0 0c0 -7.4763794 6.0608063 -13.537186 13.537186 -13.537186l227.6343 0c3.5903015 0 7.033539 1.426239 9.572235 3.9649506c2.5387268 2.5387115 3.9649658 5.981949 3.9649658 9.572235l0 182.091c0 7.4763794 -6.0608215 13.53717 -13.537201 13.53717l-227.6343 0c-7.4763794 0 -13.537186 -6.060791 -13.537186 -13.53717z" fill-rule="nonzero"></path><path stroke="#434343" stroke-width="8.0" stroke-linejoin="round" stroke-linecap="butt" d="m194.59055 185.36133l0 0c0 -7.4763794 6.0608063 -13.537186 13.537186 -13.537186l227.6343 0c3.5903015 0 7.033539 1.426239 9.572235 3.9649506c2.5387268 2.5387115 3.9649658 5.981949 3.9649658 9.572235l0 182.091c0 7.4763794 -6.0608215 13.53717 -13.537201 13.53717l-227.6343 0c-7.4763794 0 -13.537186 -6.060791 -13.537186 -13.53717z" fill-rule="nonzero"></path><path fill="#073763" d="m249.47614 322.28683l0 -91.625015l29.6875 0q16.875 0 22.0 1.375q7.875 2.0625 13.1875 8.96875q5.3125 6.90625 5.3125 17.843765q0 8.4375 -3.0625 14.1875q-3.0625 5.75 -7.78125 9.03125q-4.71875 3.28125 -9.59375 4.34375q-6.625 1.3125 -19.1875 1.3125l-12.0625 0l0 34.5625l-18.5 0zm18.5 -76.125015l0 26.000015l10.125 0q10.9375 0 14.625 -1.4375q3.6875 -1.4375 5.78125 -4.5q2.09375 -3.0625 2.09375 -7.125q0 -5.0000153 -2.9375 -8.250015q-2.9375 -3.25 -7.4375 -4.0625q-3.3125 -0.625 -13.3125 -0.625l-8.9375 0zm87.5 76.125015l0 -76.125015l-27.1875 0l0 -15.5l72.8125 0l0 15.5l-27.125 0l0 76.125015l-18.5 0z" fill-rule="nonzero"></path><path fill="#b4a7d6" d="m192.11285 330.12335l-66.87688 0c-12.573395 0 -22.766144 -10.192749 -22.766144 -22.766144l0 -57.808655l-21.349098 0l34.778236 -26.858261l34.77823 26.858261l-21.34909 0l0 53.716553c0 4.8828125E-4 3.9672852E-4 8.8500977E-4 8.8500977E-4 8.8500977E-4l62.78386 -8.8500977E-4z" fill-rule="nonzero"></path><path stroke="#434343" stroke-width="8.0" stroke-linejoin="round" stroke-linecap="butt" d="m192.11285 330.12335l-66.87688 0c-12.573395 0 -22.766144 -10.192749 -22.766144 -22.766144l0 -57.808655l-21.349098 0l34.778236 -26.858261l34.77823 26.858261l-21.34909 0l0 53.716553c0 4.8828125E-4 3.9672852E-4 8.8500977E-4 8.8500977E-4 8.8500977E-4l62.78386 -8.8500977E-4z" fill-rule="nonzero"></path><path fill="#f9cb9c" d="m266.44882 60.131233l66.87689 0c12.573395 0 22.766144 10.192749 22.766144 22.766144l0 57.808662l21.34909 0l-34.77823 26.858261l-34.77823 -26.858261l21.34909 0l0 -53.716537c0 -4.9591064E-4 -3.9672852E-4 -8.9263916E-4 -8.8500977E-4 -8.9263916E-4l-62.783875 8.9263916E-4z" fill-rule="nonzero"></path><path stroke="#434343" stroke-width="8.0" stroke-linejoin="round" stroke-linecap="butt" d="m266.44882 60.131233l66.87689 0c12.573395 0 22.766144 10.192749 22.766144 22.766144l0 57.808662l21.34909 0l-34.77823 26.858261l-34.77823 -26.858261l21.34909 0l0 -53.716537c0 -4.9591064E-4 -3.9672852E-4 -8.9263916E-4 -8.8500977E-4 -8.9263916E-4l-62.783875 8.9263916E-4z" fill-rule="nonzero"></path></g></svg>

